%YAML 1.1
%TAG !u! tag:unity3d.com,2011:
--- !u!114 &11400000
MonoBehaviour:
  m_ObjectHideFlags: 0
  m_CorrespondingSourceObject: {fileID: 0}
  m_PrefabInstance: {fileID: 0}
  m_PrefabAsset: {fileID: 0}
  m_GameObject: {fileID: 0}
  m_Enabled: 1
  m_EditorHideFlags: 0
  m_Script: {fileID: 11500000, guid: c45e6277ef86d8f40bf796e420e74226, type: 3}
  m_Name: Preset2
  m_EditorClassIdentifier: 
  stats:
  - statName: MaxHP
    baseValue: 250
  - statName: Dmg
    baseValue: 35
  - statName: CritChance
    baseValue: 10
  - statName: CritDmg
    baseValue: 5
  - statName: Def
    baseValue: 5
  - statName: Thorns
    baseValue: 0
  - statName: Restoration
    baseValue: 0
