%YAML 1.1
%TAG !u! tag:unity3d.com,2011:
--- !u!114 &11400000
MonoBehaviour:
  m_ObjectHideFlags: 0
  m_CorrespondingSourceObject: {fileID: 0}
  m_PrefabInstance: {fileID: 0}
  m_PrefabAsset: {fileID: 0}
  m_GameObject: {fileID: 0}
  m_Enabled: 1
  m_EditorHideFlags: 0
  m_Script: {fileID: 11500000, guid: 553b21dcd722c60409a32d6dd4d529cf, type: 3}
  m_Name: BasicHead
  m_EditorClassIdentifier: 
  itemName: IG-1
  description: 'I hate droids. '
  rarity: 0
  baseType: 0
  partType: 0
  icon: {fileID: 408526737, guid: ac2511f0dfb62894c8500cf13e71ea21, type: 3}
  statModifiers:
  - statName: MaxHP
    value: 25
  - statName: Dmg
    value: 5
  ability: {fileID: 0}
  stackable: 0
  salvageValue: 10
  coreNumber: 0
