%YAML 1.1
%TAG !u! tag:unity3d.com,2011:
--- !u!114 &11400000
MonoBehaviour:
  m_ObjectHideFlags: 0
  m_CorrespondingSourceObject: {fileID: 0}
  m_PrefabInstance: {fileID: 0}
  m_PrefabAsset: {fileID: 0}
  m_GameObject: {fileID: 0}
  m_Enabled: 1
  m_EditorHideFlags: 0
  m_Script: {fileID: 11500000, guid: 553b21dcd722c60409a32d6dd4d529cf, type: 3}
  m_Name: Blue Stick
  m_EditorClassIdentifier: 
  itemName: Blue Stick
  description: A stick keeping the memories of a thousand pages.
  rarity: 0
  baseType: 0
  partType: 2
  icon: {fileID: 685185378, guid: 6d5d93c6fdc035d4c9f6f936911cc73a, type: 3}
  statModifiers:
  - statName: Dmg
    value: 2
  ability: {fileID: 0}
  stackable: 0
  salvageValue: 0
  coreNumber: 5
